[gd_scene load_steps=3 format=2]

[ext_resource path="res://assets/midnight_at_marcos/textures/[1] 'Menu'/[9] [Active] 'Active 8'/Animation-0 Direction-0 Frame-0.png" type="Texture" id=1]
[ext_resource path="res://assets/midnight_at_marcos/textures/[1] 'Menu'/[8] [Active] 'Active 7'/Animation-0 Direction-0 Frame-0.png" type="Texture" id=2]

[node name="Selection" type="HBoxContainer"]
margin_right = 40.0
margin_bottom = 40.0

[node name="TextureRect" type="TextureRect" parent="."]
margin_right = 32.0
margin_bottom = 40.0
texture = ExtResource( 1 )

[node name="Control" type="Control" parent="."]
margin_left = 36.0
margin_right = 36.0
margin_bottom = 40.0

[node name="TextureRect2" type="TextureRect" parent="."]
margin_left = 40.0
margin_right = 72.0
margin_bottom = 40.0
texture = ExtResource( 2 )
